Lab 11 - Interactive Visualization
…
2. Look at the data

Inspect each dataset to look at variable names and ensure it was
imported correctly.

sb_locs

## # A tibble: 25,600 × 12
##    `Store Number` `Store Name`           `Ownership Type` `Street Address` City 
##    <chr>          <chr>                  <chr>            <chr>            <chr>
##  1 47370-257954   Meritxell, 96          Licensed         Av. Meritxell, … Ando…
##  2 22331-212325   Ajman Drive Thru       Licensed         1 Street 69, Al… Ajman
##  3 47089-256771   Dana Mall              Licensed         Sheikh Khalifa … Ajman
##  4 22126-218024   Twofour 54             Licensed         Al Salam Street  Abu …
##  5 17127-178586   Al Ain Tower           Licensed         Khaldiya Area, … Abu …
##  6 17688-182164   Dalma Mall, Ground Fl… Licensed         Dalma Mall, Mus… Abu …
##  7 18182-182165   Dalma Mall, Level 1    Licensed         Dalma Mall, Mus… Abu …
##  8 23359-229184   Debenhams Yas Mall     Licensed         Yas Island       Abu …
##  9 30781-99022    Khalidiya Street       Licensed         Khalidiya St.    Abu …
## 10 20423-205465   Eastern Mangroves      Licensed         Al Salam Street… Abu …
## # ℹ 25,590 more rows
## # ℹ 7 more variables: `State/Province` <chr>, Country <chr>, Postcode <chr>,
## #   `Phone Number` <chr>, Timezone <chr>, Longitude <dbl>, Latitude <dbl>

sb_nutr

## # A tibble: 205 × 7
##    Item        Category Calories `Fat (g)` `Carb. (g)` `Fiber (g)` `Protein (g)`
##    <chr>       <chr>       <dbl>     <dbl>       <dbl>       <dbl>         <dbl>
##  1 Chonga Bag… Food          300         5          50           3            12
##  2 8-Grain Ro… Food          380         6          70           7            10
##  3 Almond Cro… Food          410        22          45           3            10
##  4 Apple Frit… Food          460        23          56           2             7
##  5 Banana Nut… Food          420        22          52           2             6
##  6 Blueberry … Food          380        16          53           1             6
##  7 Blueberry … Food          420        17          61           2             5
##  8 Butter Cro… Food          240        12          28           1             5
##  9 Butterfly … Food          350        22          38           0             2
## 10 Cheese Dan… Food          320        16          36           1             8
## # ℹ 195 more rows

usa_pop

## # A tibble: 55 × 2
##    state                population
##    <chr>                     <dbl>
##  1 Alabama                 4779736
##  2 Alaska                   710231
##  3 Arizona                 6392017
##  4 Arkansas                2915918
##  5 California             37253956
##  6 Colorado                5029196
##  7 Connecticut             3574097
##  8 Delaware                 897934
##  9 District of Columbia     601723
## 10 Florida                18801310
## # ℹ 45 more rows

usa_states

## # A tibble: 51 × 2
##    State                Abbreviation
##    <chr>                <chr>       
##  1 Alabama              AL          
##  2 Alaska               AK          
##  3 Arizona              AZ          
##  4 Arkansas             AR          
##  5 California           CA          
##  6 Colorado             CO          
##  7 Connecticut          CT          
##  8 Delaware             DE          
##  9 District of Columbia DC          
## 10 Florida              FL          
## # ℹ 41 more rows
…
